<svg width="108" height="108" viewBox="0 0 108 108" fill="none" xmlns="http://www.w3.org/2000/svg">
<g filter="url(#filter0_ddd)">
<rect x="4" width="100" height="100" rx="50" fill="url(#paint0_linear)"/>
</g>
<g filter="url(#filter1_d)">
<path d="M33.8054 58.6667H41.0128V58.9749V61.4403L37.8281 62.9812H37.0739L33.8054 61.4403V58.9749V58.6667Z" fill="#F9B54C"/>
<path d="M33.8054 58.9749C33.6379 61.3632 37.1577 62.9811 37.1577 62.9811H37.6606C37.6606 62.9811 41.0128 61.4403 41.0128 58.9749C41.0128 58.9749 41.6833 59.4371 41.8509 60.2076C42.8566 62.2107 41.5157 68.1431 41.5157 68.1431C41.5157 68.1431 42.1023 71.456 38.5824 75H36.2358C36.2358 75 29.3637 69.9921 32.9674 67.5267C30.4532 65.3695 32.7998 60.978 32.9674 60.2076C33.135 59.4371 33.8054 58.9749 33.8054 58.9749Z" fill="white"/>
<path d="M33.2188 66.0629C34.7273 63.4395 37.4092 63.2893 37.4092 63.2893C37.4092 63.2893 40.091 63.4395 41.5995 66.0629L41.5157 70.2233L38.5825 75H36.2359L33.135 70.2233L33.2188 66.0629Z" fill="#E6E9EE"/>
<path d="M36.571 63.4434C36.571 63.4434 37.0235 63.2893 37.4425 63.2893C37.8616 63.2893 38.2806 63.4434 38.2806 63.4434C38.6996 63.5975 38.8107 63.636 38.8107 63.636L38.2806 65.1384H36.571L36.0178 63.636L36.571 63.4434Z" fill="#F1543F"/>
<path d="M36.571 65.1384H38.2817L40.0071 72.6887L38.5824 75H36.2358L34.7273 72.6887L36.571 65.1384Z" fill="#FF7058"/>
<path d="M48.8068 63.5204C48.8068 63.5204 46.7116 61.8255 41.8508 60.2076C41.8508 60.2076 42.1022 63.4434 41.3479 67.6808C40.5937 71.9182 38.5823 75 38.5823 75C42.1022 74.4607 45.3707 73.0739 45.3707 73.0739C45.3707 73.0739 48.2201 71.9182 50.8181 68.7594C50.8181 68.7594 50.4829 65.8318 48.8068 63.5204Z" fill="#324A5E"/>
<path d="M26.0114 63.5204C26.0114 63.5204 28.1065 61.8255 32.9673 60.2076C32.9673 60.2076 32.7159 63.4434 33.4702 67.6808C34.2244 71.9182 36.2358 75 36.2358 75C32.7159 74.4607 29.4474 73.0739 29.4474 73.0739C29.4474 73.0739 26.598 71.9182 24 68.7594C24 68.7594 24.3352 65.8318 26.0114 63.5204Z" fill="#324A5E"/>
<ellipse cx="37.3253" cy="54.1981" rx="5.02841" ry="6.4717" fill="#FFD05B"/>
<path d="M30.5497 48.7948C30.5497 48.7948 31.1364 45.4819 35.1591 46.4064C35.1591 46.4064 40.5227 44.6344 42.7017 48.7948C42.7017 48.7948 45.4673 53.4174 41.3608 58.0401C41.3608 58.0401 43.2045 53.4174 40.2713 52.3388C37.1704 52.0306 35.7458 50.875 35.7458 50.875C35.7458 50.875 35.7458 51.7995 36.9191 52.3388C34.6562 52.5699 32.8963 51.2602 32.8963 51.2602C32.8963 51.2602 31.723 54.1879 33.2316 58.0401C29.0412 54.496 30.5497 48.7948 30.5497 48.7948Z" fill="#29364A"/>
<path d="M66.574 60.0534H73.6137V64.8302H66.574V60.0534Z" fill="#F9B54C"/>
<path d="M65.5681 62.2107C65.9034 61.1321 66.5738 60.978 66.5738 60.978C66.5738 60.978 66.5738 62.5188 70.0937 64.8302C73.6136 62.5188 73.6136 60.978 73.6136 60.978C73.6136 60.978 74.284 61.1321 74.6193 62.2107L74.9545 65.0613L74.6193 67.7578H65.5681L65.2329 64.9072L65.5681 62.2107Z" fill="white"/>
<path d="M58.696 65.2924C58.696 65.2924 61.2102 63.7515 65.5682 62.2107C65.3168 64.3679 66.071 67.7578 66.071 67.7578C67.1605 65.2154 71.5185 63.1352 74.1165 67.7578C74.1165 67.7578 74.8707 64.3679 74.6193 62.2107C79.4801 63.9056 81.6591 65.2924 81.6591 65.2924C81.6591 65.2924 82.6648 66.9874 83 69.2987C69.2557 80.239 57.1875 69.2987 57.1875 69.2987C57.2713 67.7578 58.696 65.2924 58.696 65.2924Z" fill="#FF7058"/>
<ellipse cx="70.0938" cy="55.739" rx="5.02841" ry="6.4717" fill="#FFD05B"/>
<path d="M66.5739 57.5113C66.5739 58.2345 66.2537 58.8207 65.652 58.8207C65.0503 58.8207 64.2273 58.003 64.2273 57.2798C64.2273 56.1242 64.6463 56.2012 65.0654 56.2012C65.6671 56.2012 66.5739 56.7881 66.5739 57.5113Z" fill="#FFD05B"/>
<path d="M73.6136 57.5118C73.6136 58.2347 73.9338 58.8207 74.5355 58.8207C75.1372 58.8207 75.9602 58.0034 75.9602 57.2805C75.9602 56.1253 75.5412 56.2023 75.1221 56.2023C74.5204 56.2023 73.6136 56.7889 73.6136 57.5118Z" fill="#FFD05B"/>
<path d="M65.7261 49.9817C66.0613 49.2883 70.1678 46.6688 74.0229 49.9817C74.0229 49.9817 76.4533 51.8307 75.3638 56.2222H74.861C74.4419 53.6027 72.682 54.9895 71.7601 51.8307C68.9107 54.6814 66.8993 53.3716 65.1394 56.2222H64.6366C63.7147 51.5996 65.7261 49.9817 65.7261 49.9817Z" fill="#324A5E"/>
<ellipse cx="70.0938" cy="48.3428" rx="3.18466" ry="2.15723" fill="#324A5E"/>
<rect x="46.4602" y="28.3113" width="20.1136" height="12.9434" rx="5" fill="#E6E9EE"/>
<rect x="41.7671" y="26" width="20.1136" height="12.9434" rx="5" fill="white"/>
<path d="M42.7727 44.4906L50.1477 38.4811L45.2031 38.173L42.7727 44.4906Z" fill="white"/>
<path d="M65.5681 46.1855L58.1931 40.1761L63.1377 39.8679L65.5681 46.1855Z" fill="#E6E9EE"/>
</g>
<defs>
<filter id="filter0_ddd" x="0" y="0" width="108" height="108" filterUnits="userSpaceOnUse" color-interpolation-filters="sRGB">
<feFlood flood-opacity="0" result="BackgroundImageFix"/>
<feColorMatrix in="SourceAlpha" type="matrix" values="0 0 0 0 0 0 0 0 0 0 0 0 0 0 0 0 0 0 127 0"/>
<feOffset dy="4"/>
<feGaussianBlur stdDeviation="2"/>
<feColorMatrix type="matrix" values="0 0 0 0 0 0 0 0 0 0 0 0 0 0 0 0 0 0 0.25 0"/>
<feBlend mode="normal" in2="BackgroundImageFix" result="effect1_dropShadow"/>
<feColorMatrix in="SourceAlpha" type="matrix" values="0 0 0 0 0 0 0 0 0 0 0 0 0 0 0 0 0 0 127 0"/>
<feOffset dy="4"/>
<feGaussianBlur stdDeviation="2"/>
<feColorMatrix type="matrix" values="0 0 0 0 0 0 0 0 0 0 0 0 0 0 0 0 0 0 0.25 0"/>
<feBlend mode="normal" in2="effect1_dropShadow" result="effect2_dropShadow"/>
<feColorMatrix in="SourceAlpha" type="matrix" values="0 0 0 0 0 0 0 0 0 0 0 0 0 0 0 0 0 0 127 0"/>
<feOffset dy="4"/>
<feGaussianBlur stdDeviation="2"/>
<feColorMatrix type="matrix" values="0 0 0 0 0 0 0 0 0 0 0 0 0 0 0 0 0 0 0.25 0"/>
<feBlend mode="normal" in2="effect2_dropShadow" result="effect3_dropShadow"/>
<feBlend mode="normal" in="SourceGraphic" in2="effect3_dropShadow" result="shape"/>
</filter>
<filter id="filter1_d" x="20" y="26" width="67" height="57" filterUnits="userSpaceOnUse" color-interpolation-filters="sRGB">
<feFlood flood-opacity="0" result="BackgroundImageFix"/>
<feColorMatrix in="SourceAlpha" type="matrix" values="0 0 0 0 0 0 0 0 0 0 0 0 0 0 0 0 0 0 127 0"/>
<feOffset dy="4"/>
<feGaussianBlur stdDeviation="2"/>
<feColorMatrix type="matrix" values="0 0 0 0 0 0 0 0 0 0 0 0 0 0 0 0 0 0 0.25 0"/>
<feBlend mode="normal" in2="BackgroundImageFix" result="effect1_dropShadow"/>
<feBlend mode="normal" in="SourceGraphic" in2="effect1_dropShadow" result="shape"/>
</filter>
<linearGradient id="paint0_linear" x1="4" y1="0" x2="104" y2="100" gradientUnits="userSpaceOnUse">
<stop stop-color="#404E5A"/>
<stop offset="1" stop-color="white"/>
</linearGradient>
</defs>
</svg>
