<svg width="108" height="108" viewBox="0 0 108 108" fill="none" xmlns="http://www.w3.org/2000/svg">
<g filter="url(#filter0_ddd)">
<rect x="4" width="100" height="100" rx="50" fill="url(#paint0_linear)"/>
</g>
<g filter="url(#filter1_d)">
<path d="M30.6451 41.0784C30.6451 41.0784 29.832 40.8124 29.5513 40.0419C29.5513 40.0419 36.2197 31.876 37.2707 32.7267L51.4897 46.2014L45.3566 51.236L48.8184 47.9555L47.8613 47.0485L42.4032 52.221C42.4032 52.221 41.5901 51.9549 41.3094 51.1844L46.7662 46.0133L45.8091 45.1064L40.3523 50.2775C40.3523 50.2775 39.5393 50.0115 39.2586 49.241L44.7153 44.0699L43.7583 43.1629L38.3015 48.334C38.3015 48.334 37.4884 48.068 37.2077 47.2975L42.6645 42.1264L41.8442 41.349L36.3874 46.5201C36.3874 46.5201 35.5743 46.2541 35.2936 45.4836L40.7504 40.3125L39.9301 39.5351L34.4733 44.7062C34.4733 44.7062 33.6602 44.4402 33.3795 43.6697L38.8363 38.4986L38.016 37.7212L32.5592 42.8923C32.5592 42.8923 31.7461 42.6263 31.4654 41.8558L36.9222 36.6847L36.1019 35.9073L30.6451 41.0784Z" fill="#6F9EB3"/>
<path d="M63.5985 72.3073C63.5985 72.3073 63.8798 73.0772 64.6923 73.3438C64.6923 73.3438 73.8158 67.1475 72.3947 66.0446L58.1757 52.5699L52.8754 58.3701L56.3296 55.0967L57.2867 56.0037L51.8405 61.1648C51.8405 61.1648 52.1218 61.9347 52.9343 62.2013L58.3791 57.0415L59.3361 57.9484L53.8913 63.1082C53.8913 63.1082 54.1726 63.8782 54.9851 64.1447L60.4299 58.985L61.3869 59.8919L55.9421 65.0517C55.9421 65.0517 56.2234 65.8216 57.0359 66.0882L62.4807 60.9284L63.301 61.7058L57.8562 66.8656C57.8562 66.8656 58.1375 67.6355 58.95 67.9021L64.3948 62.7423L65.2151 63.5197L59.7703 68.6795C59.7703 68.6795 60.0516 69.4494 60.8641 69.716L66.3089 64.5562L67.1292 65.3336L61.6844 70.4934C61.6844 70.4934 61.9657 71.2633 62.7782 71.5299L68.223 66.3701L69.0433 67.1475L63.5985 72.3073Z" fill="#385264"/>
<path d="M63.6179 50.3912L62.2167 47.5409C58.7677 49.475 58.5162 46.3533 55.7857 46.7944C54.3845 47.2356 33.0794 59.2811 33.0794 59.2811C31.1752 60.5366 31.9656 61.8599 31.9656 61.8599L43.2469 57.7542L52.0851 54.5986L61.0671 51.2734L63.6179 50.3912Z" fill="#385264"/>
<path d="M77.1143 40.7414C74.5055 42.2314 73.5044 45.0682 74.8782 47.0775C76.252 49.0868 79.4805 49.5078 82.0893 48.0178C84.6981 46.5278 85.6993 43.691 84.3255 41.6817C82.9517 39.6724 79.7231 39.2514 77.1143 40.7414ZM81.3669 46.9611C79.5158 48.0184 77.2249 47.7196 76.2501 46.2939C75.2753 44.8682 75.9857 42.8553 77.8368 41.7981C79.6879 40.7408 81.9787 41.0395 82.9536 42.4653C83.9284 43.891 83.218 45.9039 81.3669 46.9611Z" fill="#D6222B"/>
<path d="M77.8951 40.522L81.8619 40.9154L82.9912 37.4346C82.9912 37.4346 81.8247 36.9813 80.7352 37.6404C80.7352 37.6404 62.3678 47.2011 61.881 47.6436C61.679 48.011 63.2147 50.6821 63.6441 50.6351C65.8628 50.3922 69.4567 49.4403 70.3163 49.3649C72.034 49.1769 73.7279 49.3176 74.344 49.4612C78.4342 50.2768 78.8624 50.1971 79.4713 50.1441C79.4713 50.1441 81.6531 49.8752 83.7855 48.2632C83.7855 48.2632 84.9718 47.3057 85.7703 45.574C85.7703 45.574 86.3035 44.4414 86.3819 42.6679C86.3819 42.6679 86.2974 40.3751 85.0229 38.9415C85.0229 38.9415 84.3024 37.9159 82.9912 37.4346L81.8619 40.9154L84.0372 42.4175L82.8569 47.4413L80.2339 48.4136L75.3744 47.197L74.1847 45.1376L77.8951 40.522Z" fill="#D6222B"/>
<path d="M54.0304 41.5107L57.0467 42.8379C54.9999 46.1046 58.3035 46.3428 57.8367 48.929C57.3699 50.2561 44.6224 70.4351 44.6224 70.4351C43.2937 72.2386 41.8933 71.49 41.8933 71.49L46.2382 60.805L49.5777 52.4339L53.0968 43.9268L54.0304 41.5107Z" fill="#6F9EB3"/>
<path d="M63.7555 29.0256C62.2186 31.5483 59.1487 32.5955 56.8988 31.3645C54.649 30.1335 54.071 27.0905 55.608 24.5678C57.1449 22.0451 60.2148 20.9979 62.4647 22.2289C64.7146 23.4599 65.2925 26.5028 63.7555 29.0256ZM56.7911 25.2152C55.7006 27.0052 56.1107 29.1644 57.7071 30.0378C59.3035 30.9113 61.4818 30.1682 62.5724 28.3782C63.6629 26.5882 63.2528 24.429 61.6564 23.5555C60.06 22.6821 57.8817 23.4251 56.7911 25.2152Z" fill="#D6222B"/>
<path d="M63.9674 28.2784L63.3929 24.5352L67.1633 23.3442C67.1633 23.3442 67.7019 24.4331 67.0196 25.488C67.0196 25.488 57.2166 43.217 56.7498 43.6934C56.3548 43.8975 53.3744 42.5364 53.4103 42.128C53.5959 40.0183 54.508 36.5814 54.5594 35.7647C54.703 34.1313 54.4876 32.532 54.308 31.9535C53.2667 28.1082 53.3385 27.6999 53.3744 27.1214C53.3744 27.1214 53.5899 25.0457 55.2776 22.9699C55.2776 22.9699 56.283 21.8129 58.1502 20.9962C58.1502 20.9962 59.3711 20.4518 61.3102 20.3157C61.3102 20.3157 63.8238 20.3157 65.4397 21.4726C65.4397 21.4726 66.5887 22.1192 67.1633 23.3442L63.3929 24.5352L61.6693 22.5275L56.2112 23.8206L55.2416 26.3387L56.7498 30.8986L59.0479 31.9535L63.9674 28.2784Z" fill="#D6222B"/>
<ellipse cx="54.1023" cy="49.8478" rx="1.2568" ry="1.191" fill="#C4C4C4"/>
</g>
<defs>
<filter id="filter0_ddd" x="0" y="0" width="108" height="108" filterUnits="userSpaceOnUse" color-interpolation-filters="sRGB">
<feFlood flood-opacity="0" result="BackgroundImageFix"/>
<feColorMatrix in="SourceAlpha" type="matrix" values="0 0 0 0 0 0 0 0 0 0 0 0 0 0 0 0 0 0 127 0"/>
<feOffset dy="4"/>
<feGaussianBlur stdDeviation="2"/>
<feColorMatrix type="matrix" values="0 0 0 0 0 0 0 0 0 0 0 0 0 0 0 0 0 0 0.25 0"/>
<feBlend mode="normal" in2="BackgroundImageFix" result="effect1_dropShadow"/>
<feColorMatrix in="SourceAlpha" type="matrix" values="0 0 0 0 0 0 0 0 0 0 0 0 0 0 0 0 0 0 127 0"/>
<feOffset dy="4"/>
<feGaussianBlur stdDeviation="2"/>
<feColorMatrix type="matrix" values="0 0 0 0 0 0 0 0 0 0 0 0 0 0 0 0 0 0 0.25 0"/>
<feBlend mode="normal" in2="effect1_dropShadow" result="effect2_dropShadow"/>
<feColorMatrix in="SourceAlpha" type="matrix" values="0 0 0 0 0 0 0 0 0 0 0 0 0 0 0 0 0 0 127 0"/>
<feOffset dy="4"/>
<feGaussianBlur stdDeviation="2"/>
<feColorMatrix type="matrix" values="0 0 0 0 0 0 0 0 0 0 0 0 0 0 0 0 0 0 0.25 0"/>
<feBlend mode="normal" in2="effect2_dropShadow" result="effect3_dropShadow"/>
<feBlend mode="normal" in="SourceGraphic" in2="effect3_dropShadow" result="shape"/>
</filter>
<filter id="filter1_d" x="25.5513" y="20.3157" width="64.8306" height="61.0281" filterUnits="userSpaceOnUse" color-interpolation-filters="sRGB">
<feFlood flood-opacity="0" result="BackgroundImageFix"/>
<feColorMatrix in="SourceAlpha" type="matrix" values="0 0 0 0 0 0 0 0 0 0 0 0 0 0 0 0 0 0 127 0"/>
<feOffset dy="4"/>
<feGaussianBlur stdDeviation="2"/>
<feColorMatrix type="matrix" values="0 0 0 0 0 0 0 0 0 0 0 0 0 0 0 0 0 0 0.25 0"/>
<feBlend mode="normal" in2="BackgroundImageFix" result="effect1_dropShadow"/>
<feBlend mode="normal" in="SourceGraphic" in2="effect1_dropShadow" result="shape"/>
</filter>
<linearGradient id="paint0_linear" x1="4" y1="0" x2="104" y2="100" gradientUnits="userSpaceOnUse">
<stop stop-color="#232323"/>
<stop offset="1" stop-color="#1A87D7"/>
</linearGradient>
</defs>
</svg>
