<svg width="108" height="108" viewBox="0 0 108 108" fill="none" xmlns="http://www.w3.org/2000/svg">
<g filter="url(#filter0_ddd)">
<rect x="4" width="100" height="100" rx="50" fill="url(#paint0_linear)"/>
</g>
<g filter="url(#filter1_d)">
<path d="M37.439 42.4834V53.2159H19L37.439 42.4834Z" fill="#3D903D"/>
<rect x="66.8049" y="37.0591" width="22.1951" height="6.04428" fill="#3D913D"/>
<rect x="36.0732" y="68.8303" width="51.3902" height="2.16974" fill="#351C08"/>
<rect x="37.439" y="43.1033" width="50.0244" height="25.7269" fill="#E0DA86"/>
<rect x="55.3657" y="43.1033" width="14.1707" height="25.7269" fill="#FFF0B0"/>
<rect x="32.6584" y="43.1033" width="49.6829" height="0.929889" fill="#351C08"/>
<path d="M57.5 29L82.4141 43.1808H32.5859L57.5 29Z" fill="#146834"/>
<rect x="49.0488" y="43.7233" width="26.8049" height="0.774908" fill="#351C08"/>
<path d="M62.4512 36.7491L75.8324 43.7233H49.0701L62.4512 36.7491Z" fill="#3D903D"/>
<rect x="21.561" y="53.1771" width="2.56098" height="17.8229" fill="#351C08"/>
<rect x="40.3416" y="47.9077" width="13.1463" height="6.50922" fill="#351C08"/>
<rect x="41.1951" y="48.6826" width="1.87805" height="4.95941" fill="#5C7E51"/>
<rect x="43.5854" y="48.6826" width="5.46341" height="4.95941" fill="#63815D"/>
<rect x="49.561" y="48.6826" width="2.90244" height="4.95941" fill="#628063"/>
<rect x="40.3416" y="57.9815" width="6.4878" height="10.8487" fill="#341905"/>
<rect x="45.8049" y="64.0258" width="0.512195" height="1.23985" fill="#C4C4C4"/>
<rect x="57.9268" y="46.5129" width="9.04878" height="19.0627" fill="#341905"/>
<rect x="58.7805" y="47.2878" width="7.34146" height="17.3579" fill="#63815D"/>
<rect x="74.8293" y="47.9077" width="8.53658" height="6.50922" fill="#341905"/>
<rect x="75.6829" y="48.6826" width="1.36585" height="4.95941" fill="#628063"/>
<rect x="77.7317" y="48.6826" width="4.60976" height="4.95941" fill="#628063"/>
<rect x="75.6829" y="48.6826" width="1.36585" height="4.95941" fill="#628063"/>
<rect x="74.8293" y="56.8967" width="8.53658" height="6.50922" fill="#341905"/>
<rect x="77.7317" y="57.6716" width="4.60976" height="4.95941" fill="#628063"/>
<rect x="75.6829" y="57.6716" width="1.36585" height="4.95941" fill="#628063"/>
<rect x="77.7317" y="48.6826" width="4.60976" height="4.95941" fill="#628063"/>
</g>
<defs>
<filter id="filter0_ddd" x="0" y="0" width="108" height="108" filterUnits="userSpaceOnUse" color-interpolation-filters="sRGB">
<feFlood flood-opacity="0" result="BackgroundImageFix"/>
<feColorMatrix in="SourceAlpha" type="matrix" values="0 0 0 0 0 0 0 0 0 0 0 0 0 0 0 0 0 0 127 0"/>
<feOffset dy="4"/>
<feGaussianBlur stdDeviation="2"/>
<feColorMatrix type="matrix" values="0 0 0 0 0 0 0 0 0 0 0 0 0 0 0 0 0 0 0.25 0"/>
<feBlend mode="normal" in2="BackgroundImageFix" result="effect1_dropShadow"/>
<feColorMatrix in="SourceAlpha" type="matrix" values="0 0 0 0 0 0 0 0 0 0 0 0 0 0 0 0 0 0 127 0"/>
<feOffset dy="4"/>
<feGaussianBlur stdDeviation="2"/>
<feColorMatrix type="matrix" values="0 0 0 0 0 0 0 0 0 0 0 0 0 0 0 0 0 0 0.25 0"/>
<feBlend mode="normal" in2="effect1_dropShadow" result="effect2_dropShadow"/>
<feColorMatrix in="SourceAlpha" type="matrix" values="0 0 0 0 0 0 0 0 0 0 0 0 0 0 0 0 0 0 127 0"/>
<feOffset dy="4"/>
<feGaussianBlur stdDeviation="2"/>
<feColorMatrix type="matrix" values="0 0 0 0 0 0 0 0 0 0 0 0 0 0 0 0 0 0 0.25 0"/>
<feBlend mode="normal" in2="effect2_dropShadow" result="effect3_dropShadow"/>
<feBlend mode="normal" in="SourceGraphic" in2="effect3_dropShadow" result="shape"/>
</filter>
<filter id="filter1_d" x="15" y="29" width="78.0001" height="50" filterUnits="userSpaceOnUse" color-interpolation-filters="sRGB">
<feFlood flood-opacity="0" result="BackgroundImageFix"/>
<feColorMatrix in="SourceAlpha" type="matrix" values="0 0 0 0 0 0 0 0 0 0 0 0 0 0 0 0 0 0 127 0"/>
<feOffset dy="4"/>
<feGaussianBlur stdDeviation="2"/>
<feColorMatrix type="matrix" values="0 0 0 0 0 0 0 0 0 0 0 0 0 0 0 0 0 0 0.25 0"/>
<feBlend mode="normal" in2="BackgroundImageFix" result="effect1_dropShadow"/>
<feBlend mode="normal" in="SourceGraphic" in2="effect1_dropShadow" result="shape"/>
</filter>
<linearGradient id="paint0_linear" x1="4" y1="0" x2="104" y2="100" gradientUnits="userSpaceOnUse">
<stop stop-color="#020202"/>
<stop offset="1" stop-color="#02AAD3"/>
</linearGradient>
</defs>
</svg>
